46.909000000000006, -0.8450574712643544
47.4382, -1.6931678160919432
47.4382, -4.195788505747117
47.967400000000005, -4.209691954022972
48.4966, -4.223595402298841
49.025800000000004, -4.2374988505746956
49.55500000000001, -5.085609195402284
49.422700000000006, -6.750547126436771
50.0842, -5.933719540229873
50.6134, -5.947622988505742
51.1426, -5.961526436781597
51.715900000000005, -5.698519540229867
52.2451, -2.375595402298842
52.06870000000001, -5.151650574712633
52.7302, 0.6704183908046133
52.5979, -1.8287264367815936
53.3035, 0.9334252873563287
53.7886, 2.3110252873563297
54.317800000000005, 2.297121839080461
54.58240000000001, -0.2124505747126335
54.847, 1.4490114942528862
55.376200000000004, 0.6009011494252974
55.9054, -0.24720919540229147
56.4346, -1.0953195402298803
56.963800000000006, -1.109222988505735
57.493, 0.5452873563218503
58.0222, 0.5313839080459957
58.5514, 0.5174804597701268
59.080600000000004, 0.5035770114942721
59.60980000000001, 0.4896735632184033
60.139, 0.4757701149425486
60.6682, 0.46186666666667975
61.2415, 0.7248735632183951
61.726600000000005, 2.102473563218396
62.25580000000001, 2.0885701149425415
62.5204, -0.0038988505746999635
63.0496, 0.39930114942529826
63.5788, 0.3853977011494436
64.108, 0.37149425287357474
64.6372, 0.3575908045977201
65.16640000000001, 0.3436873563218512
65.6956, 0.32978390804599655
66.2248, 0.3158804597701277
66.754, -1.3664367816091811
67.28320000000001, -0.54613333333333
67.8124, 0.2741701149425495
68.3416, 0.26026666666668063
68.8708, 0.24636321839082598
69.4, 0.2324597701149571
69.92920000000001, -0.6156505747126317
70.45840000000001, -1.4637609195402206
70.9876, -2.311871264367795
71.5168, -3.1599816091953983
72.046, -4.008091954022973
71.9137, -5.673029885057446
72.5752, -5.690409195402282
72.44290000000001, -7.355347126436769
73.1044, -7.372726436781591
72.97210000000001, -9.037664367816078
73.6336, -9.055043678160914
73.6336, -11.557664367816088
74.1628, -12.405774712643662
74.0305, -14.07071264367815
74.4274, -16.58376091954021
74.69200000000001, -18.676229885057467
75.0007, -21.60406436781608
74.95660000000001, -25.773940229885042
75.22120000000001, -29.95192643678159
75.22120000000001, -32.87165057471263
75.3535, -26.61857471264365
75.48580000000001, -36.63253333333331
75.48580000000001, -39.552257471264355
75.6181, -33.2991816091954
75.75040000000001, -43.313140229885036
75.8827, -39.97978850574712
76.015, -46.65691954022988
76.3237, -50.00185747126436
76.5442, -54.59578850574714
76.6765, -51.67954022988506
77.0734, -55.86100229885055
76.9411, -57.52594022988502
77.6026, -57.54331954022986
77.47030000000001, -59.20825747126436
78.1318, -58.39142988505746
78.3964, -60.483898850574704
78.9256, -60.080698850574706
79.4548, -60.094602298850546
79.98400000000001, -58.440091954022975
79.8517, -60.93923678160918
80.5573, -56.50867126436778
81.0424, -55.131071264367804
81.5716, -55.144974712643645
82.1008, -55.99308505747125
82.1008, -58.49570574712642
82.63, -59.343816091954025
82.49770000000001, -61.0087540229885
83.1592, -61.026133333333334
83.02690000000001, -62.69107126436781
83.6884, -61.87424367816091
84.2176, -61.88814712643678
84.74680000000001, -61.902050574712646
85.27600000000001, -61.915954022988515
85.27600000000001, -64.41857471264369
85.80520000000001, -61.929857471264356
85.6729, -64.42900229885056
86.3344, -61.943760919540225
86.8636, -60.289250574712625
86.7313, -62.78839540229883
87.1282, -56.95937471264368
87.3928, -53.629498850574706
87.26050000000001, -59.46547126436782
87.6574, -50.29962298850576
87.52510000000001, -56.13559540229885
87.78970000000001, -52.80571954022987
88.1866, -50.3135264367816
88.4512, -52.40599540229884
88.8481, -51.99931954022988
