47.150369056713245, -5.9281860465116125
46.976382691098976, -8.741209302325565
47.632208944543834, -2.8338604651162598
47.50202620509597, -5.365581395348819
48.15908059759223, -1.1460465116278868
48.68718038969202, -1.1460465116278868
49.21528018179181, -1.1460465116278868
49.74337997389161, -1.1460465116278868
50.2714797659914, -1.1460465116278868
50.53706483585554, -3.2558139534883566
51.10866121935889, -2.5525581395348595
51.591729246240874, -1.1460465116278868
52.11982903834067, -1.1460465116278868
52.38541410820481, -3.2558139534883566
52.91320686554175, -2.8338604651162598
52.91504907411884, -5.365581395348819
53.44130665764155, -2.8338604651162598
53.969406449741335, -2.8338604651162598
54.49750624184112, -2.8338604651162598
55.02499196441522, -1.9899534883720733
55.55370582604071, -2.8338604651162598
56.08180561814051, -2.8338604651162598
56.083647826717595, -5.365581395348819
56.609905410240295, -2.8338604651162598
57.181808828506504, -2.5525581395348595
57.70868048155491, -0.8647441860464937
58.19174850843689, 0.5417674418604861
58.719848300536675, 0.5417674418604861
58.98543337040081, -1.5679999999999836
59.51445426678915, -2.8338604651162598
59.78003933665329, -4.943627906976722
60.309060233041635, -6.209488372093006
60.57464530290577, -8.319255813953468
61.10243806024272, -7.897302325581379
61.62930971329111, -6.209488372093006
61.49912697384325, -8.741209302325565
62.1574095053909, -6.209488372093006
62.6855092974907, -6.209488372093006
63.21360908959049, -6.209488372093006
63.74170888169028, -6.209488372093006
64.31361229995649, -5.9281860465116125
64.79668032683847, -4.521674418604633
65.32478011893826, -4.521674418604633
65.85287991103806, -4.521674418604633
66.38036563361214, -3.6777674418604462
66.90785135618624, -2.8338604651162598
67.21795646666345, -5.646883720930212
67.70307139196441, -7.053395348837192
67.70491360054152, -9.585116279069751
68.2317852535899, -7.897302325581379
68.10160251414206, -10.429023255813938
68.75865690663831, -6.209488372093006
68.62847416719045, -8.741209302325565
69.28675669873809, -6.209488372093006
69.85743197795291, -4.2403720930232325
69.68344561233863, -7.053395348837192
70.3392718657835, -1.1460465116278868
70.20908912633564, -3.6777674418604462
70.6008654837306, 2.229581395348859
70.86245910167771, 5.605209302325605
71.16806103563314, 8.98083720930235
70.99632625827974, 3.0734883720930455
71.42842651452884, 14.044279069767462
71.68879199342456, 19.10772093023258
71.773124208287, 24.1711627906977
71.91221095585746, 14.46623255813956
72.0396303824397, 20.795534883720954
72.04208666054248, 17.41990697674421
72.17902416477301, 10.668651162790717
72.1814804428758, 7.293023255813978
72.30859283469516, 14.044279069767462
72.49199493303679, 3.917395348837232
72.45105696465697, -0.3021395348837004
72.76218552434366, -4.521674418604633
72.72094052120099, -8.319255813953468
73.24934734806362, -8.741209302325565
73.11855053909008, -10.429023255813938
73.77806120968911, -9.585116279069751
74.08857569985011, -12.960744186046497
74.3563100130542, -18.024186046511616
74.57972897548711, -22.665674418604638
74.84224369772278, -20.55590697674417
74.84592811487695, -25.619348837209287
75.36972942029686, -19.71199999999999
75.24016075037471, -23.087627906976735
75.67533135425228, -16.336372093023243
76.19954203935599, -10.991627906976731
76.02616974326742, -14.64855813953487
76.72416210414349, -6.209488372093006
76.55058511821304, -9.585116279069751
77.07622863221002, -6.209488372093006
77.21070985833776, -9.585116279069751
77.21316613644055, -12.960744186046497
77.52368062660156, -16.336372093023243
77.79121024996374, -21.11851162790697
78.27550641589711, -21.399813953488362
78.8036062079969, -21.399813953488362
79.3323200696224, -22.24372093023254
79.20152326064886, -23.931534883720914
79.86103393124789, -23.087627906976735
80.38913372334768, -23.087627906976735
80.91661944592177, -22.24372093023254
80.78582263694823, -23.931534883720914
81.44594737707297, -23.931534883720914
81.44778958565004, -26.46325581395348
81.97466123869845, -24.775441860465108
81.97650344727555, -27.30716279069766
82.54533651791326, -22.806325581395342
82.37135015229899, -25.619348837209287
83.02840454479525, -21.399813953488362
83.55527619784365, -19.71199999999999
84.08337598994343, -19.71199999999999
84.61147578204323, -19.71199999999999
85.18337920030943, -19.430697674418596
85.66644722719141, -18.024186046511616
86.1945470192912, -18.024186046511616
86.722646811391, -18.024186046511616
86.85651396799304, -20.55590697674417
87.2945502296572, -17.742883720930223
87.7763901174878, -14.64855813953487
87.77823232606488, -17.180279069767423
88.30633211816468, -17.180279069767423
88.17553530919113, -18.868093023255796
88.57345236184307, -21.399813953488362
88.97014127544361, -22.24372093023254
