47.22182926829268, -0.04682926829266876
47.75195121951219, 1.639024390243918
47.61826829268292, -0.8897560975609622
48.28115121951219, 1.639024390243918
48.81035121951219, 1.639024390243918
49.33955121951219, 1.639024390243918
49.86875121951219, 1.639024390243918
50.397951219512194, 1.639024390243918
50.92715121951219, 1.639024390243918
51.456351219512186, 1.639024390243918
51.98555121951219, 1.639024390243918
52.51429024390244, 0.7960975609756247
52.381068292682926, -0.8897560975609622
53.04302926829268, -0.04682926829266876
53.57176829268292, -0.8897560975609622
54.10096829268292, -0.8897560975609622
54.63062926829268, -0.04682926829266876
55.159829268292675, -0.04682926829266876
55.68902926829267, -0.04682926829266876
56.218229268292674, -0.04682926829266876
56.74742926829268, -0.04682926829266876
57.27662926829268, -0.04682926829266876
57.805829268292676, -0.04682926829266876
58.33502926829267, -0.04682926829266876
58.864229268292675, -0.04682926829266876
59.39342926829268, -0.04682926829266876
59.92262926829268, -0.04682926829266876
60.45136829268292, -0.8897560975609622
60.98010731707316, -1.7326829268292556
61.509307317073166, -1.7326829268292556
62.03942926829268, -0.04682926829266876
62.568629268292675, -0.04682926829266876
63.09782926829268, -0.04682926829266876
63.627029268292674, -0.04682926829266876
64.15622926829268, -0.04682926829266876
64.68542926829268, -0.04682926829266876
65.21462926829267, -0.04682926829266876
65.74382926829267, -0.04682926829266876
66.27302926829267, -0.04682926829266876
66.80222926829268, -0.04682926829266876
67.06567682926828, -2.1541463414634023
67.59510731707317, -1.7326829268292556
68.12430731707316, -1.7326829268292556
68.65442926829269, -0.04682926829266876
69.18362926829268, -0.04682926829266876
69.71282926829268, -0.04682926829266876
70.24202926829268, -0.04682926829266876
70.77122926829267, -0.04682926829266876
71.30042926829267, -0.04682926829266876
71.87388292682925, 0.23414634146344326
72.35975121951219, 1.639024390243918
72.8889512195122, 1.639024390243918
73.4181512195122, 1.639024390243918
73.9473512195122, 1.639024390243918
74.47655121951219, 1.639024390243918
75.00575121951219, 1.639024390243918
75.53495121951218, 1.639024390243918
76.0650731707317, 3.324878048780505
76.6394487804878, 5.29170731707319
77.16957073170731, 6.9775609756097765
77.65543902439023, 8.382439024390266
78.18556097560975, 10.068292682926852
78.71476097560975, 10.068292682926852
79.2444219512195, 10.911219512195146
79.77408292682927, 11.75414634146344
80.30328292682927, 11.75414634146344
80.56673048780488, 9.646829268292706
81.09616097560975, 10.068292682926852
81.35960853658537, 7.960975609756119
81.93313902439024, 8.382439024390266
82.46433658536584, 12.035121951219523
82.28593902439025, 8.382439024390266
82.99630243902439, 17.092682926829283
82.81790487804878, 13.440000000000012
83.52734634146341, 20.464390243902457
83.34940975609756, 17.65463414634148
84.01413658536586, 23.555121951219533
83.88045365853658, 21.026341463414653
84.58759024390244, 23.83609756097563
85.07345853658536, 25.24097560975612
85.64691219512194, 25.521951219512204
86.13278048780487, 26.926829268292707
86.66198048780487, 26.926829268292707
87.19071951219512, 26.083902439024413
87.18933658536585, 23.555121951219533
87.71807560975608, 22.71219512195124
87.71623170731706, 19.340487804878066
88.24450975609756, 17.65463414634148
88.77278780487805, 15.968780487804892
88.63956585365852, 14.282926829268305
